{"data":[{"id":"7f0faee9-4db1-4864-be63-7b66238ddb6f","nome":"Bolo de Cenoura com Chocolate","descricao":"Fatia do bolo tradicional","preco":"15.00","categoria":"Sobremesas","urlImagem":null,"ativo":true,"ambiente":{"id":"ef5f3912-a59c-4e7b-871d-3e396231e274","nome":"Confeitaria","descricao":"Preparo de doces e bolos","tipo":"PREPARO","isPontoDeRetirada":false}},{"id":"1e5e3192-ae8e-4f90-893f-46e8b7ce0409","nome":"Brownie com Sorvete","descricao":"Brownie quente com sorvete de creme","preco":"20.00","categoria":"Sobremesas","urlImagem":null,"ativo":true,"ambiente":{"id":"ef5f3912-a59c-4e7b-871d-3e396231e274","nome":"Confeitaria","descricao":"Preparo de doces e bolos","tipo":"PREPARO","isPontoDeRetirada":false}},{"id":"2d3c7bc0-a47b-4cfd-876f-10291c49356d","nome":"Caipirinha de Lim??o","descricao":"Cacha??a, lim??o, a????car e gelo","preco":"15.00","categoria":"Drinks","urlImagem":null,"ativo":true,"ambiente":{"id":"d11fc8be-074b-4f56-9b76-73e5f877209e","nome":"Bar Principal","descricao":"Preparo de bebidas e drinks","tipo":"PREPARO","isPontoDeRetirada":false}},{"id":"e6c926d7-4e90-45fa-907f-ad05be2be191","nome":"Caipirinha de Morango","descricao":"Cacha??a, morango, a????car e gelo","preco":"16.00","categoria":"Drinks","urlImagem":null,"ativo":true,"ambiente":{"id":"d11fc8be-074b-4f56-9b76-73e5f877209e","nome":"Bar Principal","descricao":"Preparo de bebidas e drinks","tipo":"PREPARO","isPontoDeRetirada":false}},{"id":"b95058d0-99a9-40a6-88c9-c240990fcc77","nome":"Carpaccio de Salm??o","descricao":"L??minas de salm??o com alcaparras e molho especial","preco":"65.00","categoria":"Entradas","urlImagem":null,"ativo":true,"ambiente":{"id":"e6f3566d-44f9-4948-8cdb-131a2bbd61a9","nome":"Cozinha Fria","descricao":"Preparo de saladas, frios e sobremesas","tipo":"PREPARO","isPontoDeRetirada":false}}],"meta":{"total":37,"page":2,"limit":5,"totalPages":8,"hasNext":true,"hasPrev":true}}
