{"data":[{"id":"a5eb6b08-e06a-4f3c-82cf-8887081b20a8","nome":"??gua com G??s 300ml","descricao":"Garrafa","preco":"5.00","categoria":"Bebidas","urlImagem":null,"ativo":true,"ambiente":{"id":"d11fc8be-074b-4f56-9b76-73e5f877209e","nome":"Bar Principal","descricao":"Preparo de bebidas e drinks","tipo":"PREPARO","isPontoDeRetirada":false}},{"id":"c5216a20-02be-4815-b13f-9078469e8785","nome":"??gua sem G??s 300ml","descricao":"Garrafa","preco":"5.00","categoria":"Bebidas","urlImagem":null,"ativo":true,"ambiente":{"id":"d11fc8be-074b-4f56-9b76-73e5f877209e","nome":"Bar Principal","descricao":"Preparo de bebidas e drinks","tipo":"PREPARO","isPontoDeRetirada":false}},{"id":"6960cc17-019f-4a3c-b8ab-ed93b4452c50","nome":"An??is de Cebola","descricao":"An??is de cebola empanados e fritos","preco":"28.00","categoria":"Por????es","urlImagem":null,"ativo":true,"ambiente":{"id":"97ec65b9-2952-4635-be83-882e30117582","nome":"Cozinha Quente","descricao":"Preparo de pratos quentes, grelhados e frituras","tipo":"PREPARO","isPontoDeRetirada":false}},{"id":"7476fc70-f03d-4ffb-b165-0674de42f4f8","nome":"Batata Frita com Cheddar e Bacon","descricao":"Por????o generosa para 2 pessoas","preco":"35.00","categoria":"Por????es","urlImagem":null,"ativo":true,"ambiente":{"id":"97ec65b9-2952-4635-be83-882e30117582","nome":"Cozinha Quente","descricao":"Preparo de pratos quentes, grelhados e frituras","tipo":"PREPARO","isPontoDeRetirada":false}},{"id":"384862a2-1dc8-4272-b4ab-8a3259050c64","nome":"Batata R??stica","descricao":"Batata em gomos assada","preco":"22.00","categoria":"Por????es","urlImagem":null,"ativo":true,"ambiente":{"id":"97ec65b9-2952-4635-be83-882e30117582","nome":"Cozinha Quente","descricao":"Preparo de pratos quentes, grelhados e frituras","tipo":"PREPARO","isPontoDeRetirada":false}}],"meta":{"total":37,"page":1,"limit":5,"totalPages":8,"hasNext":true,"hasPrev":false}}