{"data":[{"id":"97592452-b35a-4a15-a031-4351209e1236","nome":"Picanha na Brasa 400g","descricao":"Picanha mal passada com alho e sal grosso","preco":"110.00","categoria":"Carnes","urlImagem":null,"ativo":true,"ambiente":{"id":"18caff78-bad0-43e9-a852-5282dab09a96","nome":"Churrasqueira","descricao":"Preparo de carnes na brasa","tipo":"PREPARO","isPontoDeRetirada":false}},{"id":"9b66a24f-2121-423d-9782-4ba245a1021f","nome":"Picanha na Chapa","descricao":"Acompanha arroz, farofa e vinagrete","preco":"95.00","categoria":"Pratos Principais","urlImagem":null,"ativo":true,"ambiente":{"id":"97ec65b9-2952-4635-be83-882e30117582","nome":"Cozinha Quente","descricao":"Preparo de pratos quentes, grelhados e frituras","tipo":"PREPARO","isPontoDeRetirada":false}},{"id":"40e78a0d-76e8-4903-9ff1-1dfedb810a70","nome":"Fraldinha na Brasa","descricao":"Acompanha farofa e vinagrete","preco":"95.00","categoria":"Carnes","urlImagem":null,"ativo":true,"ambiente":{"id":"18caff78-bad0-43e9-a852-5282dab09a96","nome":"Churrasqueira","descricao":"Preparo de carnes na brasa","tipo":"PREPARO","isPontoDeRetirada":false}},{"id":"4ed11fe6-8592-437b-b0ca-c52ca399bc57","nome":"Costela BBQ","descricao":"Costela su??na glaceada com molho barbecue","preco":"85.00","categoria":"Carnes","urlImagem":null,"ativo":true,"ambiente":{"id":"18caff78-bad0-43e9-a852-5282dab09a96","nome":"Churrasqueira","descricao":"Preparo de carnes na brasa","tipo":"PREPARO","isPontoDeRetirada":false}},{"id":"b95058d0-99a9-40a6-88c9-c240990fcc77","nome":"Carpaccio de Salm??o","descricao":"L??minas de salm??o com alcaparras e molho especial","preco":"65.00","categoria":"Entradas","urlImagem":null,"ativo":true,"ambiente":{"id":"e6f3566d-44f9-4948-8cdb-131a2bbd61a9","nome":"Cozinha Fria","descricao":"Preparo de saladas, frios e sobremesas","tipo":"PREPARO","isPontoDeRetirada":false}}],"meta":{"total":37,"page":1,"limit":5,"totalPages":8,"hasNext":true,"hasPrev":false}}
